{
	"actions": [
		{
			"id": "export",
			"label": "Exporteren als",
			"type": "dropdown",
			"data": {
				"children": [
					{
						"id": "export_csv",
						"label": "CSV",
						"type": "download",
						"data": {
							"url": "<[getSelectionZql()]>",
							"params": {
								"zapi_format": "csv"
							}
						}
					},
					{
						"id": "export_excel",
						"label": "XLS",
						"type": "download",
						"data": {
							"url": "<[getSelectionZql()]>",
							"params": {
								"zapi_format": "xls"
							}
						}
					},
					{
						"id": "export_oocalc",
						"label": "OO Calc",
						"type": "download",
						"data": {
							"url": "<[getSelectionZql()]>",
							"params": {
								"zapi_format": "calc"
							}
						}
					},
					{
						"id": "overdrachtsbestand",
						"label": "Overdrachtsbestand",
						"type": "download",
						"data": {
							"url": "/api/object/search/export/?zql=<[getSelectionZql()]>"
						}
					}
				]
			}
		}
	],
	"filters": {
		"name": "searchWidgetForm",
		"options": {
			"autosave": true,
			"method": "GET"
		},
		"fieldsets": [
			{
				"name": "fulltext",
				"title": "Trefwoorden",
				"description": "",
				"fields": [
					{
						"name": "fulltext",
						"type": "text",
						"default": null
					}
				]
			},
            {
                "name": "interval_period",
                "title": "Patroon",
                "description": "",
                "fields": [
                    {
                        "name": "interval_period",
                        "type": "checkbox-list",
                        "data": {
                            "options": [
                                { "value": "once",   "label": "Eenmalig" },
                                { "value": "days",   "label": "Dagelijks" },
                                { "value": "weeks",  "label": "Wekelijks" },
                                { "value": "months", "label": "Maandelijks" },
                                { "value": "years",  "label": "Jaarlijks" }
                            ]
                        }
                    }
                ]
            },
            {
                "name": "next_run",
                "title": "Startdatum",
                "description": "",
                "fields": [
                    {
                        "name": "next_run",
                        "type": "date"
                    }
                ]
            }
		],
		"actions": [
			{
				"name": "submit",
				"type": "submit",
				"label": "Submit"
			}
		],
		"promises": [
		]
	},
	"columns": {
		"templates": {
            "type": {
                "label": "Taak type",
                "resolve": "values.job"
            },
            "label": {
                "label": "Omschrijving",
                "resolve": "label",
                "columns": []
            },
            "interval_period": {
                "template": "<[item.values.interval_period]>",
                "label": "Patroon"
            },
            "next_run": {
                "template": "<span>Start op <[item.values.next_run | date:'dd-MM-yyyy']> (<[item.values.runs_left || 'onbeperkte']> herhalingen)</span>",
                "label": "Bereik",
                "data": {
                    "columns": [ "next_run", "runs_left" ]
                }
            },
			"actions": {
				"label": "Acties",
				"locked": true,
				"sort": false,
				"templateUrl": "/html/widget/search/action-menu.html",
				"data": {
					"columns": []
				},
				"dynamic": true
			}
		},
		"default": [
            "type",
            "label",
            "next_run",
            "interval_period",
			"actions"
		]
	},
	"resolve": "id",
	"sort": { "by": "next_run", "order": "asc" },
	"style": {},
	"grouping": [
		{
			"label": "Alle resultaten",
			"by": null
		}
	]
}
